{
    "object": "list",
    "results": [
        {
            "object": "block",
            "id": "fba1b499-6733-4c6c-aa2d-005fd09a8edb",
            "created_time": "2022-04-16T15:11:00.000Z",
            "last_edited_time": "2022-04-16T15:11:00.000Z",
            "created_by": {
                "object": "user",
                "id": "1590db54-99fe-467c-a656-be319fe6ca8b"
            },
            "last_edited_by": {
                "object": "user",
                "id": "1590db54-99fe-467c-a656-be319fe6ca8b"
            },
            "has_children": false,
            "archived": false,
            "type": "heading_1",
            "heading_1": {
                "color": "default",
                "text": [
                    {
                        "type": "text",
                        "text": {
                            "content": "Albania",
                            "link": null
                        },
                        "annotations": {
                            "bold": false,
                            "italic": false,
                            "strikethrough": false,
                            "underline": false,
                            "code": false,
                            "color": "default"
                        },
                        "plain_text": "Albania",
                        "href": null
                    }
                ]
            }
        },
        {
            "object": "block",
            "id": "88eda78b-61f7-41b2-b3fc-fd21dec0b79f",
            "created_time": "2022-04-16T15:14:00.000Z",
            "last_edited_time": "2022-04-16T15:14:00.000Z",
            "created_by": {
                "object": "user",
                "id": "1590db54-99fe-467c-a656-be319fe6ca8b"
            },
            "last_edited_by": {
                "object": "user",
                "id": "1590db54-99fe-467c-a656-be319fe6ca8b"
            },
            "has_children": false,
            "archived": false,
            "type": "paragraph",
            "paragraph": {
                "color": "default",
                "text": []
            }
        }
    ],
    "next_cursor": null,
    "has_more": false
}