{
    "object": "list",
    "results": [
        {
            "object": "block",
            "id": "268562a1-a4e6-49f1-b3c6-37b2c15b4f91",
            "created_time": "2022-04-15T12:14:00.000Z",
            "last_edited_time": "2022-04-15T12:14:00.000Z",
            "created_by": {
                "object": "user",
                "id": "1590db54-99fe-467c-a656-be319fe6ca8b"
            },
            "last_edited_by": {
                "object": "user",
                "id": "1590db54-99fe-467c-a656-be319fe6ca8b"
            },
            "has_children": false,
            "archived": false,
            "type": "paragraph",
            "paragraph": {
                "color": "default",
                "text": [
                    {
                        "type": "text",
                        "text": {
                            "content": "This is the back",
                            "link": null
                        },
                        "annotations": {
                            "bold": false,
                            "italic": false,
                            "strikethrough": false,
                            "underline": false,
                            "code": false,
                            "color": "default"
                        },
                        "plain_text": "This is the back",
                        "href": null
                    }
                ]
            }
        }
    ],
    "next_cursor": null,
    "has_more": false
}