{
    "object": "list",
    "results": [
        {
            "object": "block",
            "id": "37c9491b-f33a-4de7-bcd6-c0b31b3d6378",
            "created_time": "2022-04-16T15:11:00.000Z",
            "last_edited_time": "2022-04-16T15:11:00.000Z",
            "created_by": {
                "object": "user",
                "id": "1590db54-99fe-467c-a656-be319fe6ca8b"
            },
            "last_edited_by": {
                "object": "user",
                "id": "1590db54-99fe-467c-a656-be319fe6ca8b"
            },
            "has_children": true,
            "archived": false,
            "type": "column_list",
            "column_list": {}
        }
    ],
    "next_cursor": null,
    "has_more": false
}